/Users/adrianmalata/Desktop/basket-splitter/src/main/java/basket/BasketSplitter.java
/Users/adrianmalata/Desktop/basket-splitter/src/main/java/basket/utilities/ConfigFileReader.java
/Users/adrianmalata/Desktop/basket-splitter/src/main/java/basket/utilities/OptimalDeliverySelector.java
